[api-updater (non-obsolete-error-filter)] 10/11/2021 4:32:15 AM : Starting C:/Program Files/Unity/Hub/Editor/2020.3.3f1/Editor/Data/Tools/ScriptUpdater/APIUpdater.NonObsoleteApiUpdaterDetector.exe
[api-updater (non-obsolete-error-filter)] 
----------------------------------
jit/startup time      : 1273.22ms
moved types parse time: 104ms
candidates parse time : 2ms
C# parse time         : 420ms
candidates check time : 59ms
console write time    : 1ms

